bench/natural_numbers.vcd
$comment Generated by Amaranth $end
$date 2025-06-30 13:09:02.097952 $end
$timescale 1 fs $end
$scope module bench $end
$scope module top $end
$var wire 1 ! clk $end
$var wire 1 " rst $end
$var wire 1 # prog__ack $end
$var wire 1 $ proc__ack $end
$var wire 32 % proc__addr $end
$var wire 32 & prog__addr $end
$var wire 1 ' proc__cyc $end
$var wire 1 ( prog__cyc $end
$var wire 32 ) prog__r_data $end
$var wire 32 * proc__r_data $end
$var wire 1 + proc__stb $end
$var wire 1 , prog__stb $end
$var wire 32 - proc__w_data $end
$var wire 32 . prog__w_data $end
$var wire 1 / proc__w_en $end
$var wire 1 0 prog__w_en $end
$var wire 1 1 mem__ack $end
$var wire 1 2 bus__ack $end
$var wire 32 3 bus__addr $end
$var wire 32 4 mem__addr $end
$var wire 1 5 bus__cyc $end
$var wire 1 6 mem__cyc $end
$var wire 8 7 mem__r_data $end
$var wire 8 8 bus__r_data $end
$var wire 1 9 bus__stb $end
$var wire 1 : mem__stb $end
$var wire 8 ; bus__w_data $end
$var wire 8 < mem__w_data $end
$var wire 1 = bus__w_en $end
$var wire 1 > mem__w_en $end
$var wire 32 ? bus__a $end
$var wire 32 @ mpu__a $end
$var wire 32 A bus__b $end
$var wire 32 B mpu__b $end
$var wire 1 C mpu__done $end
$var wire 1 D bus__done $end
$var wire 1 E bus__en $end
$var wire 1 F mpu__en $end
$var wire 3 G bus__f $end
$var wire 3 H mpu__f $end
$var wire 1 I bus__muldiv $end
$var wire 1 J mpu__muldiv $end
$var wire 32 K mpu__result $end
$var wire 32 L bus__result $end
$scope module cache $end
$var wire 1 ! clk $end
$var wire 1 " rst $end
$var wire 1 $ proc__ack $end
$var wire 32 % proc__addr $end
$var wire 1 ' proc__cyc $end
$var wire 32 * proc__r_data $end
$var wire 1 + proc__stb $end
$var wire 1 1 mem__ack $end
$var wire 32 4 mem__addr $end
$var wire 1 6 mem__cyc $end
$var wire 8 7 mem__r_data $end
$var wire 1 : mem__stb $end
$var wire 1 |! cache_hit $end
$var wire 2 }! read_pointer $end
$var wire 32 ~! a0 $end
$var wire 32 !" a1 $end
$var wire 32 "" a2 $end
$var wire 32 #" a3 $end
$var wire 1 $" r0 $end
$var wire 1 %" r1 $end
$var wire 1 &" r2 $end
$var wire 1 '" r3 $end
$var wire 32 (" c0 $end
$var wire 32 )" c1 $end
$var wire 32 *" c2 $end
$var wire 32 +" c3 $end
$var wire 32 ," address $end
$var wire 2 -" byte_counter $end
$var string 1 ." fsm_state $end
$var wire 2 /" write_pointer $end
$upscope $end
$scope module cpu $end
$var wire 1 ! clk $end
$var wire 1 " rst $end
$var wire 1 # prog__ack $end
$var wire 32 & prog__addr $end
$var wire 1 ( prog__cyc $end
$var wire 32 ) prog__r_data $end
$var wire 1 , prog__stb $end
$var wire 32 @ mpu__a $end
$var wire 32 B mpu__b $end
$var wire 1 C mpu__done $end
$var wire 1 F mpu__en $end
$var wire 3 H mpu__f $end
$var wire 1 J mpu__muldiv $end
$var wire 32 K mpu__result $end
$var wire 32 M program_counter $end
$var wire 21 N jal_offset $end
$var wire 32 O instruction_cache $end
$var wire 7 P \instruction_cache.op $end
$var wire 32 Q \instruction_cache.r $end
$var wire 7 R \instruction_cache.r.op $end
$var wire 5 S \instruction_cache.r.rd $end
$var wire 3 T \instruction_cache.r.f_lower $end
$var wire 5 U \instruction_cache.r.rs1 $end
$var wire 5 V \instruction_cache.r.rs2 $end
$var wire 7 W \instruction_cache.r.f_upper $end
$var wire 32 X \instruction_cache.i $end
$var wire 7 Y \instruction_cache.i.op $end
$var wire 5 Z \instruction_cache.i.rd $end
$var wire 3 [ \instruction_cache.i.f $end
$var wire 5 \ \instruction_cache.i.rs $end
$var wire 12 ] \instruction_cache.i.imm $end
$var wire 32 ^ \instruction_cache.u $end
$var wire 7 _ \instruction_cache.u.op $end
$var wire 5 ` \instruction_cache.u.rd $end
$var wire 20 a \instruction_cache.u.imm $end
$var wire 32 b \instruction_cache.s $end
$var wire 7 c \instruction_cache.s.op $end
$var wire 5 d \instruction_cache.s.imm_lower $end
$var wire 3 e \instruction_cache.s.f $end
$var wire 5 f \instruction_cache.s.rs1 $end
$var wire 5 g \instruction_cache.s.rs2 $end
$var wire 7 h \instruction_cache.s.imm_upper $end
$var wire 32 i \instruction_cache.j $end
$var wire 7 j \instruction_cache.j.op $end
$var wire 5 k \instruction_cache.j.rd $end
$var wire 20 l \instruction_cache.j.offset $end
$var wire 32 m \instruction_cache.b $end
$var wire 7 n \instruction_cache.b.op $end
$var wire 5 o \instruction_cache.b.offset_lower $end
$var wire 3 p \instruction_cache.b.f $end
$var wire 5 q \instruction_cache.b.rs1 $end
$var wire 5 r \instruction_cache.b.rs2 $end
$var wire 7 s \instruction_cache.b.offset_upper $end
$var wire 32 t \instruction_cache.m $end
$var wire 7 u \instruction_cache.m.op $end
$var wire 5 v \instruction_cache.m.rd $end
$var wire 3 w \instruction_cache.m.f $end
$var wire 5 x \instruction_cache.m.rs1 $end
$var wire 5 y \instruction_cache.m.rs2 $end
$var wire 7 z \instruction_cache.m.muldiv $end
$var wire 13 { branch_offset $end
$var wire 32 | branch_next $end
$var string 1 } opcode $end
$var wire 32 ~ instruction_fetch $end
$var wire 7 !! \instruction_fetch.op $end
$var wire 32 "! \instruction_fetch.r $end
$var wire 7 #! \instruction_fetch.r.op $end
$var wire 5 $! \instruction_fetch.r.rd $end
$var wire 3 %! \instruction_fetch.r.f_lower $end
$var wire 5 &! \instruction_fetch.r.rs1 $end
$var wire 5 '! \instruction_fetch.r.rs2 $end
$var wire 7 (! \instruction_fetch.r.f_upper $end
$var wire 32 )! \instruction_fetch.i $end
$var wire 7 *! \instruction_fetch.i.op $end
$var wire 5 +! \instruction_fetch.i.rd $end
$var wire 3 ,! \instruction_fetch.i.f $end
$var wire 5 -! \instruction_fetch.i.rs $end
$var wire 12 .! \instruction_fetch.i.imm $end
$var wire 32 /! \instruction_fetch.u $end
$var wire 7 0! \instruction_fetch.u.op $end
$var wire 5 1! \instruction_fetch.u.rd $end
$var wire 20 2! \instruction_fetch.u.imm $end
$var wire 32 3! \instruction_fetch.s $end
$var wire 7 4! \instruction_fetch.s.op $end
$var wire 5 5! \instruction_fetch.s.imm_lower $end
$var wire 3 6! \instruction_fetch.s.f $end
$var wire 5 7! \instruction_fetch.s.rs1 $end
$var wire 5 8! \instruction_fetch.s.rs2 $end
$var wire 7 9! \instruction_fetch.s.imm_upper $end
$var wire 32 :! \instruction_fetch.j $end
$var wire 7 ;! \instruction_fetch.j.op $end
$var wire 5 <! \instruction_fetch.j.rd $end
$var wire 20 =! \instruction_fetch.j.offset $end
$var wire 32 >! \instruction_fetch.b $end
$var wire 7 ?! \instruction_fetch.b.op $end
$var wire 5 @! \instruction_fetch.b.offset_lower $end
$var wire 3 A! \instruction_fetch.b.f $end
$var wire 5 B! \instruction_fetch.b.rs1 $end
$var wire 5 C! \instruction_fetch.b.rs2 $end
$var wire 7 D! \instruction_fetch.b.offset_upper $end
$var wire 32 E! \instruction_fetch.m $end
$var wire 7 F! \instruction_fetch.m.op $end
$var wire 5 G! \instruction_fetch.m.rd $end
$var wire 3 H! \instruction_fetch.m.f $end
$var wire 5 I! \instruction_fetch.m.rs1 $end
$var wire 5 J! \instruction_fetch.m.rs2 $end
$var wire 7 K! \instruction_fetch.m.muldiv $end
$var string 1 L! opcode_cache $end
$var wire 1 M! enable $end
$var wire 1 N! fetch $end
$var wire 1 O! active $end
$var wire 1 P! branch_en $end
$var wire 32 Q! r00 $end
$var wire 32 R! r01 $end
$var wire 32 S! r02 $end
$var wire 32 T! r03 $end
$var wire 32 U! r04 $end
$var wire 32 V! r05 $end
$var wire 32 W! r06 $end
$var wire 32 X! r07 $end
$var wire 32 Y! r08 $end
$var wire 32 Z! r09 $end
$var wire 32 [! r0A $end
$var wire 32 \! r0B $end
$var wire 32 ]! r0C $end
$var wire 32 ^! r0D $end
$var wire 32 _! r0E $end
$var wire 32 `! r0F $end
$var wire 32 a! r10 $end
$var wire 32 b! r11 $end
$var wire 32 c! r12 $end
$var wire 32 d! r13 $end
$var wire 32 e! r14 $end
$var wire 32 f! r15 $end
$var wire 32 g! r16 $end
$var wire 32 h! r17 $end
$var wire 32 i! r18 $end
$var wire 32 j! r19 $end
$var wire 32 k! r1A $end
$var wire 32 l! r1B $end
$var wire 32 m! r1C $end
$var wire 32 n! r1D $end
$var wire 32 o! r1E $end
$var wire 32 p! r1F $end
$var string 1 q! memorystage $end
$var wire 1 r! bus__cyc $end
$var wire 1 s! bus__stb $end
$var wire 32 t! bus__addr $end
$var wire 32 u! mem_address $end
$var wire 1 v! bus__w_en $end
$var wire 32 w! bus__w_data $end
$var wire 32 x! mem_register $end
$var wire 1 y! bus__ack $end
$var wire 32 z! bus__r_data $end
$var wire 1 {! mulstage $end
$upscope $end
$scope module mpu $end
$var wire 1 ! clk $end
$var wire 1 " rst $end
$var wire 32 ? bus__a $end
$var wire 32 A bus__b $end
$var wire 1 D bus__done $end
$var wire 1 E bus__en $end
$var wire 3 G bus__f $end
$var wire 32 L bus__result $end
$var wire 64 7" working $end
$upscope $end
$scope module ram $end
$var wire 1 ! clk $end
$var wire 1 " rst $end
$var wire 1 2 bus__ack $end
$var wire 32 3 bus__addr $end
$var wire 1 5 bus__cyc $end
$var wire 8 8 bus__r_data $end
$var wire 1 9 bus__stb $end
$var wire 8 ; bus__w_data $end
$var wire 1 = bus__w_en $end
$var wire 1 0" write_port__en $end
$var wire 8 1" write_port__addr $end
$var wire 8 2" read_port__addr $end
$var wire 1 3" write_ok $end
$var wire 1 4" read_ok $end
$var wire 8 5" read_port__data $end
$var wire 8 6" write_port__data $end
$var wire 8 8" \mem[0] $end
$var wire 8 9" \mem[1] $end
$var wire 8 :" \mem[2] $end
$var wire 8 ;" \mem[3] $end
$var wire 8 <" \mem[4] $end
$var wire 8 =" \mem[5] $end
$var wire 8 >" \mem[6] $end
$var wire 8 ?" \mem[7] $end
$var wire 8 @" \mem[8] $end
$var wire 8 A" \mem[9] $end
$var wire 8 B" \mem[10] $end
$var wire 8 C" \mem[11] $end
$var wire 8 D" \mem[12] $end
$var wire 8 E" \mem[13] $end
$var wire 8 F" \mem[14] $end
$var wire 8 G" \mem[15] $end
$var wire 8 H" \mem[16] $end
$var wire 8 I" \mem[17] $end
$var wire 8 J" \mem[18] $end
$var wire 8 K" \mem[19] $end
$var wire 8 L" \mem[20] $end
$var wire 8 M" \mem[21] $end
$var wire 8 N" \mem[22] $end
$var wire 8 O" \mem[23] $end
$var wire 8 P" \mem[24] $end
$var wire 8 Q" \mem[25] $end
$var wire 8 R" \mem[26] $end
$var wire 8 S" \mem[27] $end
$var wire 8 T" \mem[28] $end
$var wire 8 U" \mem[29] $end
$var wire 8 V" \mem[30] $end
$var wire 8 W" \mem[31] $end
$var wire 8 X" \mem[32] $end
$var wire 8 Y" \mem[33] $end
$var wire 8 Z" \mem[34] $end
$var wire 8 [" \mem[35] $end
$var wire 8 \" \mem[36] $end
$var wire 8 ]" \mem[37] $end
$var wire 8 ^" \mem[38] $end
$var wire 8 _" \mem[39] $end
$var wire 8 `" \mem[40] $end
$var wire 8 a" \mem[41] $end
$var wire 8 b" \mem[42] $end
$var wire 8 c" \mem[43] $end
$var wire 8 d" \mem[44] $end
$var wire 8 e" \mem[45] $end
$var wire 8 f" \mem[46] $end
$var wire 8 g" \mem[47] $end
$var wire 8 h" \mem[48] $end
$var wire 8 i" \mem[49] $end
$var wire 8 j" \mem[50] $end
$var wire 8 k" \mem[51] $end
$var wire 8 l" \mem[52] $end
$var wire 8 m" \mem[53] $end
$var wire 8 n" \mem[54] $end
$var wire 8 o" \mem[55] $end
$var wire 8 p" \mem[56] $end
$var wire 8 q" \mem[57] $end
$var wire 8 r" \mem[58] $end
$var wire 8 s" \mem[59] $end
$var wire 8 t" \mem[60] $end
$var wire 8 u" \mem[61] $end
$var wire 8 v" \mem[62] $end
$var wire 8 w" \mem[63] $end
$var wire 8 x" \mem[64] $end
$var wire 8 y" \mem[65] $end
$var wire 8 z" \mem[66] $end
$var wire 8 {" \mem[67] $end
$var wire 8 |" \mem[68] $end
$var wire 8 }" \mem[69] $end
$var wire 8 ~" \mem[70] $end
$var wire 8 !# \mem[71] $end
$var wire 8 "# \mem[72] $end
$var wire 8 ## \mem[73] $end
$var wire 8 $# \mem[74] $end
$var wire 8 %# \mem[75] $end
$var wire 8 &# \mem[76] $end
$var wire 8 '# \mem[77] $end
$var wire 8 (# \mem[78] $end
$var wire 8 )# \mem[79] $end
$var wire 8 *# \mem[80] $end
$var wire 8 +# \mem[81] $end
$var wire 8 ,# \mem[82] $end
$var wire 8 -# \mem[83] $end
$var wire 8 .# \mem[84] $end
$var wire 8 /# \mem[85] $end
$var wire 8 0# \mem[86] $end
$var wire 8 1# \mem[87] $end
$var wire 8 2# \mem[88] $end
$var wire 8 3# \mem[89] $end
$var wire 8 4# \mem[90] $end
$var wire 8 5# \mem[91] $end
$var wire 8 6# \mem[92] $end
$var wire 8 7# \mem[93] $end
$var wire 8 8# \mem[94] $end
$var wire 8 9# \mem[95] $end
$var wire 8 :# \mem[96] $end
$var wire 8 ;# \mem[97] $end
$var wire 8 <# \mem[98] $end
$var wire 8 =# \mem[99] $end
$var wire 8 ># \mem[100] $end
$var wire 8 ?# \mem[101] $end
$var wire 8 @# \mem[102] $end
$var wire 8 A# \mem[103] $end
$var wire 8 B# \mem[104] $end
$var wire 8 C# \mem[105] $end
$var wire 8 D# \mem[106] $end
$var wire 8 E# \mem[107] $end
$var wire 8 F# \mem[108] $end
$var wire 8 G# \mem[109] $end
$var wire 8 H# \mem[110] $end
$var wire 8 I# \mem[111] $end
$var wire 8 J# \mem[112] $end
$var wire 8 K# \mem[113] $end
$var wire 8 L# \mem[114] $end
$var wire 8 M# \mem[115] $end
$var wire 8 N# \mem[116] $end
$var wire 8 O# \mem[117] $end
$var wire 8 P# \mem[118] $end
$var wire 8 Q# \mem[119] $end
$var wire 8 R# \mem[120] $end
$var wire 8 S# \mem[121] $end
$var wire 8 T# \mem[122] $end
$var wire 8 U# \mem[123] $end
$var wire 8 V# \mem[124] $end
$var wire 8 W# \mem[125] $end
$var wire 8 X# \mem[126] $end
$var wire 8 Y# \mem[127] $end
$var wire 8 Z# \mem[128] $end
$var wire 8 [# \mem[129] $end
$var wire 8 \# \mem[130] $end
$var wire 8 ]# \mem[131] $end
$var wire 8 ^# \mem[132] $end
$var wire 8 _# \mem[133] $end
$var wire 8 `# \mem[134] $end
$var wire 8 a# \mem[135] $end
$var wire 8 b# \mem[136] $end
$var wire 8 c# \mem[137] $end
$var wire 8 d# \mem[138] $end
$var wire 8 e# \mem[139] $end
$var wire 8 f# \mem[140] $end
$var wire 8 g# \mem[141] $end
$var wire 8 h# \mem[142] $end
$var wire 8 i# \mem[143] $end
$var wire 8 j# \mem[144] $end
$var wire 8 k# \mem[145] $end
$var wire 8 l# \mem[146] $end
$var wire 8 m# \mem[147] $end
$var wire 8 n# \mem[148] $end
$var wire 8 o# \mem[149] $end
$var wire 8 p# \mem[150] $end
$var wire 8 q# \mem[151] $end
$var wire 8 r# \mem[152] $end
$var wire 8 s# \mem[153] $end
$var wire 8 t# \mem[154] $end
$var wire 8 u# \mem[155] $end
$var wire 8 v# \mem[156] $end
$var wire 8 w# \mem[157] $end
$var wire 8 x# \mem[158] $end
$var wire 8 y# \mem[159] $end
$var wire 8 z# \mem[160] $end
$var wire 8 {# \mem[161] $end
$var wire 8 |# \mem[162] $end
$var wire 8 }# \mem[163] $end
$var wire 8 ~# \mem[164] $end
$var wire 8 !$ \mem[165] $end
$var wire 8 "$ \mem[166] $end
$var wire 8 #$ \mem[167] $end
$var wire 8 $$ \mem[168] $end
$var wire 8 %$ \mem[169] $end
$var wire 8 &$ \mem[170] $end
$var wire 8 '$ \mem[171] $end
$var wire 8 ($ \mem[172] $end
$var wire 8 )$ \mem[173] $end
$var wire 8 *$ \mem[174] $end
$var wire 8 +$ \mem[175] $end
$var wire 8 ,$ \mem[176] $end
$var wire 8 -$ \mem[177] $end
$var wire 8 .$ \mem[178] $end
$var wire 8 /$ \mem[179] $end
$var wire 8 0$ \mem[180] $end
$var wire 8 1$ \mem[181] $end
$var wire 8 2$ \mem[182] $end
$var wire 8 3$ \mem[183] $end
$var wire 8 4$ \mem[184] $end
$var wire 8 5$ \mem[185] $end
$var wire 8 6$ \mem[186] $end
$var wire 8 7$ \mem[187] $end
$var wire 8 8$ \mem[188] $end
$var wire 8 9$ \mem[189] $end
$var wire 8 :$ \mem[190] $end
$var wire 8 ;$ \mem[191] $end
$var wire 8 <$ \mem[192] $end
$var wire 8 =$ \mem[193] $end
$var wire 8 >$ \mem[194] $end
$var wire 8 ?$ \mem[195] $end
$var wire 8 @$ \mem[196] $end
$var wire 8 A$ \mem[197] $end
$var wire 8 B$ \mem[198] $end
$var wire 8 C$ \mem[199] $end
$var wire 8 D$ \mem[200] $end
$var wire 8 E$ \mem[201] $end
$var wire 8 F$ \mem[202] $end
$var wire 8 G$ \mem[203] $end
$var wire 8 H$ \mem[204] $end
$var wire 8 I$ \mem[205] $end
$var wire 8 J$ \mem[206] $end
$var wire 8 K$ \mem[207] $end
$var wire 8 L$ \mem[208] $end
$var wire 8 M$ \mem[209] $end
$var wire 8 N$ \mem[210] $end
$var wire 8 O$ \mem[211] $end
$var wire 8 P$ \mem[212] $end
$var wire 8 Q$ \mem[213] $end
$var wire 8 R$ \mem[214] $end
$var wire 8 S$ \mem[215] $end
$var wire 8 T$ \mem[216] $end
$var wire 8 U$ \mem[217] $end
$var wire 8 V$ \mem[218] $end
$var wire 8 W$ \mem[219] $end
$var wire 8 X$ \mem[220] $end
$var wire 8 Y$ \mem[221] $end
$var wire 8 Z$ \mem[222] $end
$var wire 8 [$ \mem[223] $end
$var wire 8 \$ \mem[224] $end
$var wire 8 ]$ \mem[225] $end
$var wire 8 ^$ \mem[226] $end
$var wire 8 _$ \mem[227] $end
$var wire 8 `$ \mem[228] $end
$var wire 8 a$ \mem[229] $end
$var wire 8 b$ \mem[230] $end
$var wire 8 c$ \mem[231] $end
$var wire 8 d$ \mem[232] $end
$var wire 8 e$ \mem[233] $end
$var wire 8 f$ \mem[234] $end
$var wire 8 g$ \mem[235] $end
$var wire 8 h$ \mem[236] $end
$var wire 8 i$ \mem[237] $end
$var wire 8 j$ \mem[238] $end
$var wire 8 k$ \mem[239] $end
$var wire 8 l$ \mem[240] $end
$var wire 8 m$ \mem[241] $end
$var wire 8 n$ \mem[242] $end
$var wire 8 o$ \mem[243] $end
$var wire 8 p$ \mem[244] $end
$var wire 8 q$ \mem[245] $end
$var wire 8 r$ \mem[246] $end
$var wire 8 s$ \mem[247] $end
$var wire 8 t$ \mem[248] $end
$var wire 8 u$ \mem[249] $end
$var wire 8 v$ \mem[250] $end
$var wire 8 w$ \mem[251] $end
$var wire 8 x$ \mem[252] $end
$var wire 8 y$ \mem[253] $end
$var wire 8 z$ \mem[254] $end
$var wire 8 {$ \mem[255] $end
$scope module mem $end
$var wire 1 ! clk $end
$var wire 1 " rst $end
$var wire 1 0" write_port__en $end
$var wire 8 1" write_port__addr $end
$var wire 8 2" read_port__addr $end
$var wire 8 5" read_port__data $end
$var wire 8 6" write_port__data $end
$upscope $end
$upscope $end
$upscope $end
$upscope $end
$enddefinitions $end
#0
$dumpvars
0!
0"
0#
0$
b0 %
b0 &
1'
1(
b0 )
b0 *
1+
1,
b0 -
b0 .
0/
00
01
02
b0 3
b0 4
05
06
b10011 7
b10011 8
09
0:
b0 ;
b0 <
0=
0>
b0 ?
b0 @
b0 A
b0 B
0C
0D
0E
0F
b0 G
b0 H
0I
0J
b0 K
b0 L
b0 M
b0 N
b0 O
b0 P
b0 Q
b0 R
b0 S
b0 T
b0 U
b0 V
b0 W
b0 X
b0 Y
b0 Z
b0 [
b0 \
b0 ]
b0 ^
b0 _
b0 `
b0 a
b0 b
b0 c
b0 d
b0 e
b0 f
b0 g
b0 h
b0 i
b0 j
b0 k
b0 l
b0 m
b0 n
b0 o
b0 p
b0 q
b0 r
b0 s
b0 t
b0 u
b0 v
b0 w
b0 x
b0 y
b0 z
b0 {
b11111111111111111111111111111100 |
s[unknown] }
b0 ~
b0 !!
b0 "!
b0 #!
b0 $!
b0 %!
b0 &!
b0 '!
b0 (!
b0 )!
b0 *!
b0 +!
b0 ,!
b0 -!
b0 .!
b0 /!
b0 0!
b0 1!
b0 2!
b0 3!
b0 4!
b0 5!
b0 6!
b0 7!
b0 8!
b0 9!
b0 :!
b0 ;!
b0 <!
b0 =!
b0 >!
b0 ?!
b0 @!
b0 A!
b0 B!
b0 C!
b0 D!
b0 E!
b0 F!
b0 G!
b0 H!
b0 I!
b0 J!
b0 K!
s[unknown] L!
1M!
1N!
0O!
0P!
b0 Q!
b0 R!
b0 S!
b0 T!
b0 U!
b0 V!
b0 W!
b0 X!
b0 Y!
b0 Z!
b0 [!
b0 \!
b0 ]!
b0 ^!
b0 _!
b0 `!
b0 a!
b0 b!
b0 c!
b0 d!
b0 e!
b0 f!
b0 g!
b0 h!
b0 i!
b0 j!
b0 k!
b0 l!
b0 m!
b0 n!
b0 o!
b0 p!
sSETUP q!
0r!
0s!
b0 t!
b0 u!
0v!
b0 w!
b0 x!
1y!
b0 z!
0{!
0|!
b0 }!
b0 ~!
b0 !"
b0 ""
b0 #"
0$"
0%"
0&"
0'"
b0 ("
b0 )"
b0 *"
b0 +"
b0 ,"
b0 -"
sReset/0 ."
b0 /"
00"
b0 1"
b0 2"
03"
04"
b10011 5"
b0 6"
b0 7"
b10011 8"
b1110000 9"
b0 :"
b0 ;"
b10010011 <"
b11110000 ="
b0 >"
b0 ?"
b10010011 @"
b10000000 A"
b0 B"
b0 C"
b100011 D"
b10100000 E"
b0 F"
b0 G"
b10011 H"
b0 I"
b10000 J"
b0 K"
b11101111 L"
b11110011 M"
b1011111 N"
b11111111 O"
b0 P"
b0 Q"
b0 R"
b0 S"
b0 T"
b0 U"
b0 V"
b0 W"
b0 X"
b0 Y"
b0 Z"
b0 ["
b0 \"
b0 ]"
b0 ^"
b0 _"
b0 `"
b0 a"
b0 b"
b0 c"
b0 d"
b0 e"
b0 f"
b0 g"
b0 h"
b0 i"
b0 j"
b0 k"
b0 l"
b0 m"
b0 n"
b0 o"
b0 p"
b0 q"
b0 r"
b0 s"
b0 t"
b0 u"
b0 v"
b0 w"
b0 x"
b0 y"
b0 z"
b0 {"
b0 |"
b0 }"
b0 ~"
b0 !#
b0 "#
b0 ##
b0 $#
b0 %#
b0 &#
b0 '#
b0 (#
b0 )#
b0 *#
b0 +#
b0 ,#
b0 -#
b0 .#
b0 /#
b0 0#
b0 1#
b0 2#
b0 3#
b0 4#
b0 5#
b0 6#
b0 7#
b0 8#
b0 9#
b0 :#
b0 ;#
b0 <#
b0 =#
b0 >#
b0 ?#
b0 @#
b0 A#
b0 B#
b0 C#
b0 D#
b0 E#
b0 F#
b0 G#
b0 H#
b0 I#
b0 J#
b0 K#
b0 L#
b0 M#
b0 N#
b0 O#
b0 P#
b0 Q#
b0 R#
b0 S#
b0 T#
b0 U#
b0 V#
b0 W#
b0 X#
b0 Y#
b0 Z#
b0 [#
b0 \#
b0 ]#
b0 ^#
b0 _#
b0 `#
b0 a#
b0 b#
b0 c#
b0 d#
b0 e#
b0 f#
b0 g#
b0 h#
b0 i#
b0 j#
b0 k#
b0 l#
b0 m#
b0 n#
b0 o#
b0 p#
b0 q#
b0 r#
b0 s#
b0 t#
b0 u#
b0 v#
b0 w#
b0 x#
b0 y#
b0 z#
b0 {#
b0 |#
b0 }#
b0 ~#
b0 !$
b0 "$
b0 #$
b0 $$
b0 %$
b0 &$
b0 '$
b0 ($
b0 )$
b0 *$
b0 +$
b0 ,$
b0 -$
b0 .$
b0 /$
b0 0$
b0 1$
b0 2$
b0 3$
b0 4$
b0 5$
b0 6$
b0 7$
b0 8$
b0 9$
b0 :$
b0 ;$
b0 <$
b0 =$
b0 >$
b0 ?$
b0 @$
b0 A$
b0 B$
b0 C$
b0 D$
b0 E$
b0 F$
b0 G$
b0 H$
b0 I$
b0 J$
b0 K$
b0 L$
b0 M$
b0 N$
b0 O$
b0 P$
b0 Q$
b0 R$
b0 S$
b0 T$
b0 U$
b0 V$
b0 W$
b0 X$
b0 Y$
b0 Z$
b0 [$
b0 \$
b0 ]$
b0 ^$
b0 _$
b0 `$
b0 a$
b0 b$
b0 c$
b0 d$
b0 e$
b0 f$
b0 g$
b0 h$
b0 i$
b0 j$
b0 k$
b0 l$
b0 m$
b0 n$
b0 o$
b0 p$
b0 q$
b0 r$
b0 s$
b0 t$
b0 u$
b0 v$
b0 w$
b0 x$
b0 y$
b0 z$
b0 {$
$end
#5000000
1!
sLoad/1 ."
1:
16
15
19
14"
12
11
#10000000
0!
#15000000
1!
b10011000000000000000000000000 ("
b1 -"
b1 4
b10011000000000000000000000000 *
b1 3
b10011000000000000000000000000 )
b10011000000000000000000000000 ~
b10011000000000000000000000000 "!
b10000 '!
b1001 (!
b10011000000000000000000000000 )!
b100110000 .!
b10011000000000000000000000000 /!
b10011000000000000 2!
b10011000000000000000000000000 3!
b10000 8!
b1001 9!
b10011000000000000000000000000 :!
b10011000000000000 =!
b10011000000000000000000000000 >!
b10000 C!
b1001 D!
b10011000000000000000000000000 E!
b10000 J!
b1001 K!
b1 1"
b1 2"
b1110000 5"
b1110000 8
b1110000 7
#20000000
0!
#25000000
1!
b1110000000100110000000000000000 ("
b10 -"
b10 4
b1110000000100110000000000000000 *
b10 3
b1110000000100110000000000000000 )
b1110000000100110000000000000000 ~
b1110000000100110000000000000000 "!
b110 &!
b1 '!
b111000 (!
b1110000000100110000000000000000 )!
b110 -!
b11100000001 .!
b1110000000100110000000000000000 /!
b1110000000100110000 2!
b1110000000100110000000000000000 3!
b110 7!
b1 8!
b111000 9!
b1110000000100110000000000000000 :!
b1110000000100110000 =!
b1110000000100110000000000000000 >!
b110 B!
b1 C!
b111000 D!
b1110000000100110000000000000000 E!
b110 I!
b1 J!
b111000 K!
b10 1"
b10 2"
b0 5"
b0 8
b0 7
#30000000
0!
#35000000
1!
b11100000001001100000000 ("
b11 -"
b11 4
b11100000001001100000000 *
b11 3
b11100000001001100000000 )
b11100000001001100000000 ~
b11100000001001100000000 "!
b110 $!
b1 %!
b0 &!
b111 '!
b0 (!
b11100000001001100000000 )!
b110 +!
b1 ,!
b0 -!
b111 .!
b11100000001001100000000 /!
b110 1!
b11100000001 2!
b11100000001001100000000 3!
b110 5!
b1 6!
b0 7!
b111 8!
b0 9!
b11100000001001100000000 :!
b110 <!
b11100000001 =!
b11100000001001100000000 >!
b110 @!
b1 A!
b0 B!
b111 C!
b0 D!
b11100000001001100000000 E!
b110 G!
b1 H!
b0 I!
b111 J!
b0 K!
b11 1"
b11 2"
#40000000
0!
#45000000
1!
b1 /"
b0 -"
b111000000010011 ("
1$"
b100 ,"
b100 4
1|!
1$
b111000000010011 *
b100 3
1#
b111000000010011 )
b111000000010011 ~
b10011 !!
b111000000010011 "!
b10011 #!
b0 $!
b111 %!
b0 '!
b111000000010011 )!
b10011 *!
b0 +!
b111 ,!
b0 .!
b111000000010011 /!
b10011 0!
b0 1!
b111 2!
b111000000010011 3!
b10011 4!
b0 5!
b111 6!
b0 8!
b111000000010011 :!
b10011 ;!
b0 <!
b111 =!
b111000000010011 >!
b10011 ?!
b0 @!
b111 A!
b0 C!
b111000000010011 E!
b10011 F!
b0 G!
b111 H!
b0 J!
b100 1"
b100 2"
b10010011 5"
sARITHIMM }
b10010011 8
b10010011 7
#50000000
0!
#55000000
1!
b1 }!
b10010011000000000000000000000000 )"
b1 -"
b111000000010011 O
b10011 P
b111000000010011 Q
b10011 R
b111 T
b111000000010011 X
b10011 Y
b111 [
b111000000010011 ^
b10011 _
b111 a
b111000000010011 b
b10011 c
b111 e
b111000000010011 i
b10011 j
b111 l
b111000000010011 m
b10011 n
b111 p
b111000000010011 t
b10011 u
b111 w
b100 M
b100 !"
0$"
1O!
b101 4
0|!
b10010011000000000000000000000000 *
b100 &
b0 |
sARITHIMM L!
0$
b111000000000000 N
b101 3
0#
b100 %
b10010011000000000000000000000000 )
b10010011000000000000000000000000 ~
b0 !!
b10010011000000000000000000000000 "!
b0 #!
b0 %!
b10000 '!
b1001001 (!
b10010011000000000000000000000000 )!
b0 *!
b0 ,!
b100100110000 .!
b10010011000000000000000000000000 /!
b0 0!
b10010011000000000000 2!
b10010011000000000000000000000000 3!
b0 4!
b0 6!
b10000 8!
b1001001 9!
b10010011000000000000000000000000 :!
b0 ;!
b10010011000000000000 =!
b10010011000000000000000000000000 >!
b0 ?!
b0 A!
b10000 C!
b1001001 D!
b10010011000000000000000000000000 E!
b0 F!
b0 H!
b10000 J!
b1001001 K!
b101 1"
b101 2"
b11110000 5"
s[unknown] }
b11110000 8
b11110000 7
#60000000
0!
#65000000
1!
b11110000100100110000000000000000 )"
b10 -"
0O!
b110 4
b11110000100100110000000000000000 *
b110 3
b11110000100100110000000000000000 )
b11110000100100110000000000000000 ~
b11110000100100110000000000000000 "!
b110 &!
b1001 '!
b1111000 (!
b11110000100100110000000000000000 )!
b110 -!
b111100001001 .!
b11110000100100110000000000000000 /!
b11110000100100110000 2!
b11110000100100110000000000000000 3!
b110 7!
b1001 8!
b1111000 9!
b11110000100100110000000000000000 :!
b11110000100100110000 =!
b11110000100100110000000000000000 >!
b110 B!
b1001 C!
b1111000 D!
b11110000100100110000000000000000 E!
b110 I!
b1001 J!
b1111000 K!
b110 1"
b110 2"
b0 5"
b0 8
b0 7
#70000000
0!
