bench/serial2bus.vcd
$comment Generated by Amaranth $end
$date 2025-07-08 09:22:22.665230 $end
$timescale 1 fs $end
$scope module bench $end
$scope module top $end
$var wire 1 ! clk $end
$var wire 1 " rst $end
$var wire 1 # soft_reset $end
$var wire 1 $ ext_reset $end
$var string 1 % fsm_state $end
$var wire 1 & command__tready $end
$var wire 1 ' produce__stb $end
$var wire 1 ( produce__cyc $end
$var wire 1 ) reply__tvalid $end
$var wire 8 * reply__tdata $end
$var wire 8 + prefix $end
$var wire 32 , arg $end
$var wire 2 - counter $end
$var wire 1 . command__tvalid $end
$var wire 8 / command__tdata $end
$var wire 1 0 reply__tready $end
$var wire 4 1 produce__addr $end
$var wire 32 2 produce__w_data $end
$var wire 1 3 produce__w_en $end
$var wire 2 4 size $end
$var wire 1 5 produce__ack $end
$var wire 32 6 produce__r_data $end
$upscope $end
$upscope $end
$enddefinitions $end
#0
$dumpvars
0!
0"
1#
1$
sIdle/0 %
1&
0'
0(
0)
b0 *
b0 +
b0 ,
b0 -
1.
b1110111 /
00
b0 1
b0 2
03
b0 4
05
b0 6
$end
#5000000
1!
sAddress/1 %
13
b1 /
#10000000
0!
#15000000
1!
sData/5 %
b1011 /
b1 1
#20000000
0!
#25000000
1!
b1011 2
sBus/6 %
10
0.
1'
1(
0&
15
#30000000
0!
#35000000
1!
sPrint/2 %
b1 ,
b1010111 +
0'
b1010111 *
0(
1)
#40000000
0!
#45000000
1!
sPrintArg/7 %
b1 *
#50000000
0!
#55000000
1!
sIdle/0 %
b1110010 /
00
1.
b0 *
0)
1&
#60000000
0!
#65000000
1!
b0 2
sAddress/1 %
03
b1 /
b0 1
#70000000
0!
#75000000
1!
sBus/6 %
b1 1
10
0.
1'
1(
0&
b1011 6
#80000000
0!
#85000000
1!
sPrint/2 %
b1011 ,
b1010010 +
0'
b1010010 *
0(
1)
#90000000
0!
#95000000
1!
sPrintArg/7 %
b1011 *
#100000000
0!
#105000000
1!
sIdle/0 %
00
b0 *
0)
1&
#110000000
0!
#115000000
1!
b0 1
