bench/uart.vcd
$comment Generated by Amaranth $end
$date 2025-07-06 07:51:26.281593 $end
$timescale 1 fs $end
$scope module bench $end
$scope module top $end
$var wire 1 ! clk $end
$var wire 1 " rst $end
$var wire 1 # w_en $end
$var wire 1 $ consume__tvalid $end
$var wire 8 % w_data $end
$var wire 8 & consume__tdata $end
$var wire 1 ' consume__tready $end
$var wire 1 ( w_rdy $end
$var string 1 ) fsm_state $end
$var wire 1 * tx $end
$var wire 1 + r_rdy $end
$var wire 1 , r_en $end
$var wire 8 - data_register $end
$var wire 1 . parity $end
$var wire 8 / r_data $end
$var wire 4 0 counter $end
$var wire 3 1 byte_counter $end
$scope module buffer $end
$var wire 1 ! clk $end
$var wire 1 " rst $end
$var wire 1 # w_en $end
$var wire 8 % w_data $end
$var wire 1 ( w_rdy $end
$var wire 1 + r_rdy $end
$var wire 1 , r_en $end
$var wire 8 / r_data $end
$var wire 3 2 level $end
$var wire 3 3 w_level $end
$var wire 3 4 r_level $end
$var wire 2 5 w_port__addr $end
$var wire 2 6 produce $end
$var wire 8 7 w_port__data $end
$var wire 1 8 w_port__en $end
$var wire 2 9 r_port__addr $end
$var wire 2 : consume $end
$var wire 8 ; r_port__data $end
$var wire 8 < \storage[0] $end
$var wire 8 = \storage[1] $end
$var wire 8 > \storage[2] $end
$var wire 8 ? \storage[3] $end
$scope module storage $end
$var wire 1 ! clk $end
$var wire 1 " rst $end
$var wire 2 5 w_port__addr $end
$var wire 8 7 w_port__data $end
$var wire 1 8 w_port__en $end
$var wire 2 9 r_port__addr $end
$var wire 8 ; r_port__data $end
$upscope $end
$upscope $end
$upscope $end
$upscope $end
$enddefinitions $end
#0
$dumpvars
0!
0"
1#
1$
b10101001 %
b10101001 &
1'
1(
sIdle/0 )
1*
0+
0,
b0 -
0.
b0 /
b0 0
b0 1
b0 2
b0 3
b0 4
b0 5
b0 6
b10101001 7
18
b0 9
b0 :
b0 ;
b0 <
b0 =
b0 >
b0 ?
$end
#5000000
1!
b110001 &
b1 6
b10101001 <
b1 2
b10101001 ;
b1 4
b1 5
b110001 %
b1 3
1+
1,
b10101001 /
b110001 7
#10000000
0!
#15000000
1!
b10 6
b1001 0
sStart/1 )
b1 :
b10101001 -
0$
b110001 =
0,
0#
b10 5
b1 9
0*
b110001 ;
08
b110001 /
#20000000
0!
#25000000
1!
b1000 0
#30000000
0!
#35000000
1!
b111 0
#40000000
0!
#45000000
1!
b110 0
#50000000
0!
#55000000
1!
b101 0
#60000000
0!
#65000000
1!
b100 0
#70000000
0!
#75000000
1!
b11 0
#80000000
0!
#85000000
1!
b10 0
#90000000
0!
#95000000
1!
b1 0
#100000000
0!
#105000000
1!
b0 0
#110000000
0!
#115000000
1!
b1001 0
sData/2 )
b111 1
1*
#120000000
0!
#125000000
1!
b1000 0
#130000000
0!
#135000000
1!
b111 0
#140000000
0!
#145000000
1!
b110 0
#150000000
0!
#155000000
1!
b101 0
#160000000
0!
#165000000
1!
b100 0
#170000000
0!
#175000000
1!
b11 0
#180000000
0!
#185000000
1!
b10 0
#190000000
0!
#195000000
1!
b1 0
#200000000
0!
#205000000
1!
b0 0
#210000000
0!
#215000000
1!
b1001 0
b1010010 -
1.
b110 1
0*
#220000000
0!
#225000000
1!
b1000 0
#230000000
0!
#235000000
1!
b111 0
#240000000
0!
#245000000
1!
b110 0
#250000000
0!
#255000000
1!
b101 0
#260000000
0!
#265000000
1!
b100 0
#270000000
0!
#275000000
1!
b11 0
#280000000
0!
#285000000
1!
b10 0
#290000000
0!
#295000000
1!
b1 0
#300000000
0!
#305000000
1!
b0 0
#310000000
0!
#315000000
1!
b10100100 -
b1001 0
b101 1
1*
#320000000
0!
#325000000
1!
b1000 0
#330000000
0!
#335000000
1!
b111 0
#340000000
0!
#345000000
1!
b110 0
#350000000
0!
#355000000
1!
b101 0
#360000000
0!
#365000000
1!
b100 0
#370000000
0!
#375000000
1!
b11 0
#380000000
0!
#385000000
1!
b10 0
#390000000
0!
#395000000
1!
b1 0
#400000000
0!
#405000000
1!
b0 0
#410000000
0!
#415000000
1!
b1001 0
b1001000 -
0.
b100 1
0*
#420000000
0!
#425000000
1!
b1000 0
#430000000
0!
#435000000
1!
b111 0
#440000000
0!
#445000000
1!
b110 0
#450000000
0!
#455000000
1!
b101 0
#460000000
0!
#465000000
1!
b100 0
#470000000
0!
#475000000
1!
b11 0
#480000000
0!
#485000000
1!
b10 0
#490000000
0!
#495000000
1!
b1 0
#500000000
0!
#505000000
1!
b0 0
#510000000
0!
#515000000
1!
b10010000 -
b1001 0
b11 1
1*
#520000000
0!
#525000000
1!
b1000 0
#530000000
0!
#535000000
1!
b111 0
#540000000
0!
#545000000
1!
b110 0
#550000000
0!
#555000000
1!
b101 0
#560000000
0!
#565000000
1!
b100 0
#570000000
0!
#575000000
1!
b11 0
#580000000
0!
#585000000
1!
b10 0
#590000000
0!
#595000000
1!
b1 0
#600000000
0!
#605000000
1!
b0 0
#610000000
0!
#615000000
1!
b1001 0
b100000 -
1.
b10 1
0*
#620000000
0!
#625000000
1!
b1000 0
#630000000
0!
#635000000
1!
b111 0
#640000000
0!
#645000000
1!
b110 0
#650000000
0!
#655000000
1!
b101 0
#660000000
0!
#665000000
1!
b100 0
#670000000
0!
#675000000
1!
b11 0
#680000000
0!
#685000000
1!
b10 0
#690000000
0!
#695000000
1!
b1 0
#700000000
0!
#705000000
1!
b0 0
#710000000
0!
#715000000
1!
b1000000 -
b1001 0
b1 1
#720000000
0!
#725000000
1!
b1000 0
#730000000
0!
#735000000
1!
b111 0
#740000000
0!
#745000000
1!
b110 0
#750000000
0!
#755000000
1!
b101 0
#760000000
0!
#765000000
1!
b100 0
#770000000
0!
#775000000
1!
b11 0
#780000000
0!
#785000000
1!
b10 0
#790000000
0!
#795000000
1!
b1 0
#800000000
0!
#805000000
1!
b0 0
#810000000
0!
#815000000
1!
b10000000 -
b1001 0
b0 1
1*
#820000000
0!
#825000000
1!
b1000 0
#830000000
0!
#835000000
1!
b111 0
#840000000
0!
#845000000
1!
b110 0
#850000000
0!
#855000000
1!
b101 0
#860000000
0!
#865000000
1!
b100 0
#870000000
0!
#875000000
1!
b11 0
#880000000
0!
#885000000
1!
b10 0
#890000000
0!
#895000000
1!
b1 0
#900000000
0!
#905000000
1!
b0 0
#910000000
0!
#915000000
1!
b1001 0
sParity/3 )
b0 -
0.
0*
#920000000
0!
#925000000
1!
b1000 0
#930000000
0!
#935000000
1!
b111 0
#940000000
0!
#945000000
1!
b110 0
#950000000
0!
#955000000
1!
b101 0
#960000000
0!
#965000000
1!
b100 0
#970000000
0!
#975000000
1!
b11 0
#980000000
0!
#985000000
1!
b10 0
#990000000
0!
#995000000
1!
b1 0
#1000000000
0!
#1005000000
1!
b0 0
#1010000000
0!
#1015000000
1!
b1001 0
sStop/4 )
b1 1
1*
#1020000000
0!
#1025000000
1!
b1000 0
#1030000000
0!
#1035000000
1!
b111 0
#1040000000
0!
#1045000000
1!
b110 0
#1050000000
0!
#1055000000
1!
b101 0
#1060000000
0!
#1065000000
1!
b100 0
#1070000000
0!
#1075000000
1!
b11 0
#1080000000
0!
#1085000000
1!
b10 0
#1090000000
0!
#1095000000
1!
b1 0
#1100000000
0!
#1105000000
1!
b0 0
#1110000000
0!
#1115000000
1!
b1001 0
b0 1
#1120000000
0!
#1125000000
1!
b1000 0
#1130000000
0!
#1135000000
1!
b111 0
#1140000000
0!
#1145000000
1!
b110 0
#1150000000
0!
#1155000000
1!
b101 0
#1160000000
0!
#1165000000
1!
b100 0
#1170000000
0!
#1175000000
1!
b11 0
#1180000000
0!
#1185000000
1!
b10 0
#1190000000
0!
#1195000000
1!
b1 0
#1200000000
0!
#1205000000
1!
b0 0
#1210000000
0!
#1215000000
1!
sIdle/0 )
1,
#1220000000
0!
#1225000000
1!
b1001 0
sStart/1 )
b10 :
b110001 -
b0 2
0,
b0 4
b0 3
b10 9
0+
0*
b0 ;
b0 /
#1230000000
0!
#1235000000
1!
b1000 0
#1240000000
0!
#1245000000
1!
b111 0
#1250000000
0!
#1255000000
1!
b110 0
#1260000000
0!
#1265000000
1!
b101 0
#1270000000
0!
#1275000000
1!
b100 0
#1280000000
0!
#1285000000
1!
b11 0
#1290000000
0!
#1295000000
1!
b10 0
#1300000000
0!
#1305000000
1!
b1 0
#1310000000
0!
#1315000000
1!
b0 0
#1320000000
0!
#1325000000
1!
b1001 0
b111 1
sData/2 )
#1330000000
0!
#1335000000
1!
b1000 0
#1340000000
0!
#1345000000
1!
b111 0
#1350000000
0!
#1355000000
1!
b110 0
#1360000000
0!
#1365000000
1!
b101 0
#1370000000
0!
#1375000000
1!
b100 0
#1380000000
0!
#1385000000
1!
b11 0
#1390000000
0!
#1395000000
1!
b10 0
#1400000000
0!
#1405000000
1!
b1 0
#1410000000
0!
#1415000000
1!
b0 0
#1420000000
0!
#1425000000
1!
b1100010 -
b1001 0
b110 1
#1430000000
0!
#1435000000
1!
b1000 0
#1440000000
0!
#1445000000
1!
b111 0
#1450000000
0!
#1455000000
1!
b110 0
#1460000000
0!
#1465000000
1!
b101 0
#1470000000
0!
#1475000000
1!
b100 0
#1480000000
0!
#1485000000
1!
b11 0
#1490000000
0!
#1495000000
1!
b10 0
#1500000000
0!
#1505000000
1!
b1 0
#1510000000
0!
#1515000000
1!
b0 0
#1520000000
0!
#1525000000
1!
b11000100 -
b1001 0
b101 1
1*
#1530000000
0!
#1535000000
1!
b1000 0
#1540000000
0!
#1545000000
1!
b111 0
#1550000000
0!
#1555000000
1!
b110 0
#1560000000
0!
#1565000000
1!
b101 0
#1570000000
0!
#1575000000
1!
b100 0
#1580000000
0!
#1585000000
1!
b11 0
#1590000000
0!
#1595000000
1!
b10 0
#1600000000
0!
#1605000000
1!
b1 0
#1610000000
0!
#1615000000
1!
b0 0
#1620000000
0!
#1625000000
1!
b1001 0
b10001000 -
1.
b100 1
#1630000000
0!
#1635000000
1!
b1000 0
#1640000000
0!
#1645000000
1!
b111 0
#1650000000
0!
#1655000000
1!
b110 0
#1660000000
0!
#1665000000
1!
b101 0
#1670000000
0!
#1675000000
1!
b100 0
#1680000000
0!
#1685000000
1!
b11 0
#1690000000
0!
#1695000000
1!
b10 0
#1700000000
0!
#1705000000
1!
b1 0
#1710000000
0!
#1715000000
1!
b0 0
#1720000000
0!
#1725000000
1!
b1001 0
b10000 -
0.
b11 1
0*
#1730000000
0!
#1735000000
1!
b1000 0
#1740000000
0!
#1745000000
1!
b111 0
#1750000000
0!
#1755000000
1!
b110 0
#1760000000
0!
#1765000000
1!
b101 0
#1770000000
0!
#1775000000
1!
b100 0
#1780000000
0!
#1785000000
1!
b11 0
#1790000000
0!
#1795000000
1!
b10 0
#1800000000
0!
#1805000000
1!
b1 0
#1810000000
0!
#1815000000
1!
b0 0
#1820000000
0!
#1825000000
1!
b100000 -
b1001 0
b10 1
#1830000000
0!
#1835000000
1!
b1000 0
#1840000000
0!
#1845000000
1!
b111 0
#1850000000
0!
#1855000000
1!
b110 0
#1860000000
0!
#1865000000
1!
b101 0
#1870000000
0!
#1875000000
1!
b100 0
#1880000000
0!
#1885000000
1!
b11 0
#1890000000
0!
#1895000000
1!
b10 0
#1900000000
0!
#1905000000
1!
b1 0
#1910000000
0!
#1915000000
1!
b0 0
#1920000000
0!
#1925000000
1!
b1000000 -
b1001 0
b1 1
#1930000000
0!
#1935000000
1!
b1000 0
#1940000000
0!
#1945000000
1!
b111 0
#1950000000
0!
#1955000000
1!
b110 0
#1960000000
0!
#1965000000
1!
b101 0
#1970000000
0!
#1975000000
1!
b100 0
#1980000000
0!
#1985000000
1!
b11 0
#1990000000
0!
#1995000000
1!
b10 0
#2000000000
0!
#2005000000
1!
b1 0
#2010000000
0!
#2015000000
1!
b0 0
#2020000000
0!
#2025000000
1!
b10000000 -
b1001 0
b0 1
1*
#2030000000
0!
#2035000000
1!
b1000 0
#2040000000
0!
#2045000000
1!
b111 0
#2050000000
0!
#2055000000
1!
b110 0
#2060000000
0!
#2065000000
1!
b101 0
#2070000000
0!
#2075000000
1!
b100 0
#2080000000
0!
#2085000000
1!
b11 0
#2090000000
0!
#2095000000
1!
b10 0
#2100000000
0!
#2105000000
1!
b1 0
#2110000000
0!
#2115000000
1!
b0 0
#2120000000
0!
#2125000000
1!
b1001 0
sParity/3 )
b0 -
1.
#2130000000
0!
#2135000000
1!
b1000 0
#2140000000
0!
#2145000000
1!
b111 0
#2150000000
0!
#2155000000
1!
b110 0
#2160000000
0!
#2165000000
1!
b101 0
#2170000000
0!
#2175000000
1!
b100 0
#2180000000
0!
#2185000000
1!
b11 0
#2190000000
0!
#2195000000
1!
b10 0
#2200000000
0!
#2205000000
1!
b1 0
#2210000000
0!
#2215000000
1!
b0 0
#2220000000
0!
#2225000000
1!
b1001 0
sStop/4 )
0.
b1 1
#2230000000
0!
#2235000000
1!
b1000 0
#2240000000
0!
#2245000000
1!
b111 0
#2250000000
0!
#2255000000
1!
b110 0
#2260000000
0!
#2265000000
1!
b101 0
#2270000000
0!
#2275000000
1!
b100 0
#2280000000
0!
#2285000000
1!
b11 0
#2290000000
0!
#2295000000
1!
b10 0
#2300000000
0!
#2305000000
1!
b1 0
#2310000000
0!
#2315000000
1!
b0 0
#2320000000
0!
#2325000000
1!
b1001 0
b0 1
#2330000000
0!
#2335000000
1!
b1000 0
#2340000000
0!
#2345000000
1!
b111 0
#2350000000
0!
#2355000000
1!
b110 0
#2360000000
0!
#2365000000
1!
b101 0
#2370000000
0!
#2375000000
1!
b100 0
#2380000000
0!
#2385000000
1!
b11 0
#2390000000
0!
#2395000000
1!
b10 0
#2400000000
0!
#2405000000
1!
b1 0
#2410000000
0!
#2415000000
1!
b0 0
#2420000000
0!
#2425000000
1!
sIdle/0 )
