bench/uart_rx.vcd
$comment Generated by Amaranth $end
$date 2025-07-08 09:22:22.730924 $end
$timescale 1 fs $end
$scope module bench $end
$scope module top $end
$var wire 1 ! clk $end
$var wire 1 " rst $end
$var wire 8 # produce__tdata $end
$var wire 8 $ r_data $end
$var wire 1 % produce__tvalid $end
$var wire 1 & r_rdy $end
$var wire 1 ' r_en $end
$var wire 1 ( produce__tready $end
$var string 1 ) fsm_state $end
$var wire 4 * counter $end
$var wire 3 + bit_counter $end
$var wire 8 , w_data $end
$var wire 8 - data_register $end
$var wire 1 . w_en $end
$var wire 1 / rx $end
$scope module buffer $end
$var wire 1 ! clk $end
$var wire 1 " rst $end
$var wire 8 $ r_data $end
$var wire 1 & r_rdy $end
$var wire 1 ' r_en $end
$var wire 8 , w_data $end
$var wire 1 . w_en $end
$var wire 1 0 w_rdy $end
$var wire 3 1 level $end
$var wire 3 2 w_level $end
$var wire 3 3 r_level $end
$var wire 2 4 w_port__addr $end
$var wire 2 5 produce $end
$var wire 8 6 w_port__data $end
$var wire 1 7 w_port__en $end
$var wire 2 8 r_port__addr $end
$var wire 2 9 consume $end
$var wire 8 : r_port__data $end
$var wire 8 ; \storage[0] $end
$var wire 8 < \storage[1] $end
$var wire 8 = \storage[2] $end
$var wire 8 > \storage[3] $end
$scope module storage $end
$var wire 1 ! clk $end
$var wire 1 " rst $end
$var wire 2 4 w_port__addr $end
$var wire 8 6 w_port__data $end
$var wire 1 7 w_port__en $end
$var wire 2 8 r_port__addr $end
$var wire 8 : r_port__data $end
$upscope $end
$upscope $end
$upscope $end
$upscope $end
$enddefinitions $end
#0
$dumpvars
0!
0"
b0 #
b0 $
0%
0&
1'
1(
sIdle/0 )
b0 *
b0 +
b0 ,
b0 -
0.
1/
10
b0 1
b0 2
b0 3
b0 4
b0 5
b0 6
07
b0 8
b0 9
b0 :
b0 ;
b0 <
b0 =
b0 >
$end
#5000000
1!
#10000000
0!
#15000000
1!
#20000000
0!
#25000000
1!
#30000000
0!
#35000000
1!
#40000000
0!
#45000000
1!
#50000000
0!
#55000000
1!
#60000000
0!
#65000000
1!
#70000000
0!
#75000000
1!
#80000000
0!
#85000000
1!
#90000000
0!
#95000000
1!
#100000000
0!
#105000000
1!
#110000000
0!
#115000000
1!
#120000000
0!
#125000000
1!
#130000000
0!
#135000000
1!
#140000000
0!
#145000000
1!
#150000000
0!
#155000000
1!
#160000000
0!
#165000000
1!
#170000000
0!
#175000000
1!
#180000000
0!
#185000000
1!
#190000000
0!
#195000000
1!
#200000000
0!
#205000000
1!
#210000000
0!
#215000000
1!
#220000000
0!
#225000000
1!
#230000000
0!
#235000000
1!
#240000000
0!
#245000000
1!
#250000000
0!
#255000000
1!
#260000000
0!
#265000000
1!
#270000000
0!
#275000000
1!
#280000000
0!
#285000000
1!
#290000000
0!
#295000000
1!
#300000000
0!
#305000000
1!
#310000000
0!
#315000000
1!
#320000000
0!
#325000000
1!
#330000000
0!
#335000000
1!
#340000000
0!
#345000000
1!
#350000000
0!
#355000000
1!
#360000000
0!
#365000000
1!
#370000000
0!
#375000000
1!
#380000000
0!
#385000000
1!
#390000000
0!
#395000000
1!
0/
#400000000
0!
#405000000
1!
sStart/1 )
b101 *
#410000000
0!
#415000000
1!
b100 *
#420000000
0!
#425000000
1!
b11 *
#430000000
0!
#435000000
1!
b10 *
#440000000
0!
#445000000
1!
b1 *
#450000000
0!
#455000000
1!
b0 *
#460000000
0!
#465000000
1!
sData/2 )
b111 +
b1001 *
#470000000
0!
#475000000
1!
b1000 *
#480000000
0!
#485000000
1!
b111 *
#490000000
0!
#495000000
1!
1/
b110 *
#500000000
0!
#505000000
1!
b101 *
#510000000
0!
#515000000
1!
b100 *
#520000000
0!
#525000000
1!
b11 *
#530000000
0!
#535000000
1!
b10 *
#540000000
0!
#545000000
1!
b1 *
#550000000
0!
#555000000
1!
b0 *
#560000000
0!
#565000000
1!
b10000000 -
b110 +
b1001 *
#570000000
0!
#575000000
1!
b1000 *
#580000000
0!
#585000000
1!
b111 *
#590000000
0!
#595000000
1!
0/
b110 *
#600000000
0!
#605000000
1!
b101 *
#610000000
0!
#615000000
1!
b100 *
#620000000
0!
#625000000
1!
b11 *
#630000000
0!
#635000000
1!
b10 *
#640000000
0!
#645000000
1!
b1 *
#650000000
0!
#655000000
1!
b0 *
#660000000
0!
#665000000
1!
b101 +
b1001 *
b1000000 -
#670000000
0!
#675000000
1!
b1000 *
#680000000
0!
#685000000
1!
b111 *
#690000000
0!
#695000000
1!
b110 *
#700000000
0!
#705000000
1!
b101 *
#710000000
0!
#715000000
1!
b100 *
#720000000
0!
#725000000
1!
b11 *
#730000000
0!
#735000000
1!
b10 *
#740000000
0!
#745000000
1!
b1 *
#750000000
0!
#755000000
1!
b0 *
#760000000
0!
#765000000
1!
b100 +
b1001 *
b100000 -
#770000000
0!
#775000000
1!
b1000 *
#780000000
0!
#785000000
1!
b111 *
#790000000
0!
#795000000
1!
1/
b110 *
#800000000
0!
#805000000
1!
b101 *
#810000000
0!
#815000000
1!
b100 *
#820000000
0!
#825000000
1!
b11 *
#830000000
0!
#835000000
1!
b10 *
#840000000
0!
#845000000
1!
b1 *
#850000000
0!
#855000000
1!
b0 *
#860000000
0!
#865000000
1!
b11 +
b1001 *
b10010000 -
#870000000
0!
#875000000
1!
b1000 *
#880000000
0!
#885000000
1!
b111 *
#890000000
0!
#895000000
1!
0/
b110 *
#900000000
0!
#905000000
1!
b101 *
#910000000
0!
#915000000
1!
b100 *
#920000000
0!
#925000000
1!
b11 *
#930000000
0!
#935000000
1!
b10 *
#940000000
0!
#945000000
1!
b1 *
#950000000
0!
#955000000
1!
b0 *
#960000000
0!
#965000000
1!
b10 +
b1001 *
b1001000 -
#970000000
0!
#975000000
1!
b1000 *
#980000000
0!
#985000000
1!
b111 *
#990000000
0!
#995000000
1!
1/
b110 *
#1000000000
0!
#1005000000
1!
b101 *
#1010000000
0!
#1015000000
1!
b100 *
#1020000000
0!
#1025000000
1!
b11 *
#1030000000
0!
#1035000000
1!
b10 *
#1040000000
0!
#1045000000
1!
b1 *
#1050000000
0!
#1055000000
1!
b0 *
#1060000000
0!
#1065000000
1!
b1 +
b1001 *
b10100100 -
#1070000000
0!
#1075000000
1!
b1000 *
#1080000000
0!
#1085000000
1!
b111 *
#1090000000
0!
#1095000000
1!
0/
b110 *
#1100000000
0!
#1105000000
1!
b101 *
#1110000000
0!
#1115000000
1!
b100 *
#1120000000
0!
#1125000000
1!
b11 *
#1130000000
0!
#1135000000
1!
b10 *
#1140000000
0!
#1145000000
1!
b1 *
#1150000000
0!
#1155000000
1!
b0 *
#1160000000
0!
#1165000000
1!
b0 +
b1001 *
b1010010 -
#1170000000
0!
#1175000000
1!
b1000 *
#1180000000
0!
#1185000000
1!
b111 *
#1190000000
0!
#1195000000
1!
1/
b110 *
#1200000000
0!
#1205000000
1!
b101 *
#1210000000
0!
#1215000000
1!
b100 *
#1220000000
0!
#1225000000
1!
b11 *
#1230000000
0!
#1235000000
1!
b10 *
#1240000000
0!
#1245000000
1!
b1 *
#1250000000
0!
#1255000000
1!
b0 *
#1260000000
0!
#1265000000
1!
sParity/3 )
b1001 *
b10101001 -
#1270000000
0!
#1275000000
1!
b1000 *
#1280000000
0!
#1285000000
1!
b111 *
#1290000000
0!
#1295000000
1!
0/
b110 *
#1300000000
0!
#1305000000
1!
b101 *
#1310000000
0!
#1315000000
1!
b100 *
#1320000000
0!
#1325000000
1!
b11 *
#1330000000
0!
#1335000000
1!
b10 *
#1340000000
0!
#1345000000
1!
b1 *
#1350000000
0!
#1355000000
1!
b0 *
#1360000000
0!
#1365000000
1!
sStop/4 )
b1001 *
#1370000000
0!
#1375000000
1!
b1000 *
#1380000000
0!
#1385000000
1!
b111 *
#1390000000
0!
#1395000000
1!
1/
b110 *
#1400000000
0!
#1405000000
1!
b101 *
#1410000000
0!
#1415000000
1!
b100 *
#1420000000
0!
#1425000000
1!
b11 *
#1430000000
0!
#1435000000
1!
b10 *
#1440000000
0!
#1445000000
1!
b1 *
#1450000000
0!
#1455000000
1!
b0 *
1.
b10101001 ,
17
b10101001 6
#1460000000
0!
#1465000000
1!
b1 5
sIdle/0 )
b1 1
b10101001 ;
b1 3
b1 2
1&
b10101001 :
b1 4
0.
b0 ,
07
b0 6
b10101001 $
1%
b10101001 #
#1470000000
0!
#1475000000
1!
b0 1
b1 9
0&
b0 3
b0 2
b1 8
b0 :
0%
b0 $
b0 #
#1480000000
0!
#1485000000
1!
#1490000000
0!
#1495000000
1!
#1500000000
0!
#1505000000
1!
#1510000000
0!
#1515000000
1!
#1520000000
0!
#1525000000
1!
#1530000000
0!
#1535000000
1!
#1540000000
0!
#1545000000
1!
#1550000000
0!
#1555000000
1!
#1560000000
0!
#1565000000
1!
#1570000000
0!
#1575000000
1!
#1580000000
0!
#1585000000
1!
#1590000000
0!
#1595000000
1!
0/
#1600000000
0!
#1605000000
1!
sStart/1 )
b101 *
#1610000000
0!
#1615000000
1!
b100 *
#1620000000
0!
#1625000000
1!
b11 *
#1630000000
0!
#1635000000
1!
b10 *
#1640000000
0!
#1645000000
1!
b1 *
#1650000000
0!
#1655000000
1!
b0 *
#1660000000
0!
#1665000000
1!
sData/2 )
b111 +
b1001 *
#1670000000
0!
#1675000000
1!
b1000 *
#1680000000
0!
#1685000000
1!
b111 *
#1690000000
0!
#1695000000
1!
1/
b110 *
#1700000000
0!
#1705000000
1!
b101 *
#1710000000
0!
#1715000000
1!
b100 *
#1720000000
0!
#1725000000
1!
b11 *
#1730000000
0!
#1735000000
1!
b10 *
#1740000000
0!
#1745000000
1!
b1 *
#1750000000
0!
#1755000000
1!
b0 *
#1760000000
0!
#1765000000
1!
b110 +
b1001 *
b11010100 -
#1770000000
0!
#1775000000
1!
b1000 *
#1780000000
0!
#1785000000
1!
b111 *
#1790000000
0!
#1795000000
1!
0/
b110 *
#1800000000
0!
#1805000000
1!
b101 *
#1810000000
0!
#1815000000
1!
b100 *
#1820000000
0!
#1825000000
1!
b11 *
#1830000000
0!
#1835000000
1!
b10 *
#1840000000
0!
#1845000000
1!
b1 *
#1850000000
0!
#1855000000
1!
b0 *
#1860000000
0!
#1865000000
1!
b101 +
b1001 *
b1101010 -
#1870000000
0!
#1875000000
1!
b1000 *
#1880000000
0!
#1885000000
1!
b111 *
#1890000000
0!
#1895000000
1!
b110 *
#1900000000
0!
#1905000000
1!
b101 *
#1910000000
0!
#1915000000
1!
b100 *
#1920000000
0!
#1925000000
1!
b11 *
#1930000000
0!
#1935000000
1!
b10 *
#1940000000
0!
#1945000000
1!
b1 *
#1950000000
0!
#1955000000
1!
b0 *
#1960000000
0!
#1965000000
1!
b100 +
b1001 *
b110101 -
#1970000000
0!
#1975000000
1!
b1000 *
#1980000000
0!
#1985000000
1!
b111 *
#1990000000
0!
#1995000000
1!
b110 *
#2000000000
0!
#2005000000
1!
b101 *
#2010000000
0!
#2015000000
1!
b100 *
#2020000000
0!
#2025000000
1!
b11 *
#2030000000
0!
#2035000000
1!
b10 *
#2040000000
0!
#2045000000
1!
b1 *
#2050000000
0!
#2055000000
1!
b0 *
#2060000000
0!
#2065000000
1!
b11 +
b1001 *
b11010 -
#2070000000
0!
#2075000000
1!
b1000 *
#2080000000
0!
#2085000000
1!
b111 *
#2090000000
0!
#2095000000
1!
1/
b110 *
#2100000000
0!
#2105000000
1!
b101 *
#2110000000
0!
#2115000000
1!
b100 *
#2120000000
0!
#2125000000
1!
b11 *
#2130000000
0!
#2135000000
1!
b10 *
#2140000000
0!
#2145000000
1!
b1 *
#2150000000
0!
#2155000000
1!
b0 *
#2160000000
0!
#2165000000
1!
b10 +
b1001 *
b10001101 -
#2170000000
0!
#2175000000
1!
b1000 *
#2180000000
0!
#2185000000
1!
b111 *
#2190000000
0!
#2195000000
1!
0/
b110 *
#2200000000
0!
#2205000000
1!
b101 *
#2210000000
0!
#2215000000
1!
b100 *
#2220000000
0!
#2225000000
1!
b11 *
#2230000000
0!
#2235000000
1!
b10 *
#2240000000
0!
#2245000000
1!
b1 *
#2250000000
0!
#2255000000
1!
b0 *
#2260000000
0!
#2265000000
1!
b1 +
b1001 *
b1000110 -
#2270000000
0!
#2275000000
1!
b1000 *
#2280000000
0!
#2285000000
1!
b111 *
#2290000000
0!
#2295000000
1!
b110 *
#2300000000
0!
#2305000000
1!
b101 *
#2310000000
0!
#2315000000
1!
b100 *
#2320000000
0!
#2325000000
1!
b11 *
#2330000000
0!
#2335000000
1!
b10 *
#2340000000
0!
#2345000000
1!
b1 *
#2350000000
0!
#2355000000
1!
b0 *
#2360000000
0!
#2365000000
1!
b100011 -
b0 +
b1001 *
#2370000000
0!
#2375000000
1!
b1000 *
#2380000000
0!
#2385000000
1!
b111 *
#2390000000
0!
#2395000000
1!
1/
b110 *
#2400000000
0!
#2405000000
1!
b101 *
#2410000000
0!
#2415000000
1!
b100 *
#2420000000
0!
#2425000000
1!
b11 *
#2430000000
0!
#2435000000
1!
b10 *
#2440000000
0!
#2445000000
1!
b1 *
#2450000000
0!
#2455000000
1!
b0 *
#2460000000
0!
#2465000000
1!
sParity/3 )
b10010001 -
b1001 *
#2470000000
0!
#2475000000
1!
b1000 *
#2480000000
0!
#2485000000
1!
b111 *
#2490000000
0!
#2495000000
1!
b110 *
#2500000000
0!
#2505000000
1!
b101 *
#2510000000
0!
#2515000000
1!
b100 *
#2520000000
0!
#2525000000
1!
b11 *
#2530000000
0!
#2535000000
1!
b10 *
#2540000000
0!
#2545000000
1!
b1 *
#2550000000
0!
#2555000000
1!
b0 *
#2560000000
0!
#2565000000
1!
sStop/4 )
b1001 *
#2570000000
0!
#2575000000
1!
b1000 *
#2580000000
0!
#2585000000
1!
b111 *
#2590000000
0!
#2595000000
1!
b110 *
#2600000000
0!
#2605000000
1!
b101 *
#2610000000
0!
#2615000000
1!
b100 *
#2620000000
0!
#2625000000
1!
b11 *
#2630000000
0!
#2635000000
1!
b10 *
#2640000000
0!
#2645000000
1!
b1 *
#2650000000
0!
#2655000000
1!
b0 *
1.
b10010001 ,
17
b10010001 6
#2660000000
0!
#2665000000
1!
b10 5
sIdle/0 )
b10010001 <
b1 1
b1 3
b1 2
1&
b10010001 :
b10 4
0.
b0 ,
07
b0 6
b10010001 $
1%
b10010001 #
#2670000000
0!
#2675000000
1!
0(
b10 9
b0 1
0'
b0 3
0&
b10 8
b0 2
b0 :
0%
b0 $
b0 #
